"CZAS";"SO2 Dwutlenek siarki poz. dop.: 350 [µg/m3]";"NO2 Dwutlenek azotu poz. dop.: 200 [µg/m3]";"NOx Tlenki azotu  [µg/m3]";"NO Tlenek azotu  [µg/m3]";"O3 Ozon  [µg/m3]";"O3 Ozon 8h poz. doc.: 120 [µg/m3]";"CO Tlenek węgla  [µg/m3]";"CO Tlenek węgla 8h poz. dop.: 10000 [µg/m3]";"PM10 Pył zawieszony PM10  [µg/m3]"
"1:00";"5.7";"32";"94";"40";"3";"6";"1235";"1583";"123"
"2:00";"6.4";"30";"82";"34";"2";"6";"1150";"1589";"111"
"3:00";"5.4";"30";"69";"26";"3";"5";"1093";"1521";"109"
"4:00";"5.5";"27";"53";"17";"3";"4";"1023";"1423";"90"
"5:00";"5.7";"28";"50";"14";"2";"4";"939";"1278";"84"
"6:00";"10.7";"30";"48";"11";"2";"3";"747";"1142";"60"
"7:00";"11.9";"32";"64";"21";"3";"3";"739";"1038";"58"
"8:00";"12.6";"33";"92";"38";"3";"3";"793";"965";"73"
"9:00";"24.1";"35";"102";"44";"4";"3";"657";"893";"62"
"10:00";"48.5";"31";"71";"26";"10";"4";"525";"815";"57"
"11:00";"49.6";"25";"42";"11";"20";"6";"386";"726";"40"
"12:00";"10.4";"15";"21";"4";"35";"10";"263";"631";"15"
"13:00";"-";"-";"-";"-";"34";"14";"-";"587";"-"
"14:00";"7.7";"13";"18";"3";"33";"18";"251";"516";"23"
"15:00";"6.9";"16";"21";"3";"32";"21";"250";"446";"15"
"16:00";"6.1";"19";"24";"3";"31";"25";"262";"370";"23"
"17:00";"5.1";"24";"27";"2";"27";"28";"266";"314";"23"
"18:00";"5.8";"32";"37";"3";"17";"29";"283";"280";"16"
"19:00";"6.8";"29";"35";"4";"21";"29";"318";"270";"31"
"20:00";"5.7";"17";"20";"1";"30";"28";"276";"272";"21"
"21:00";"6.2";"16";"18";"1";"30";"27";"256";"270";"30"
"22:00";"6.1";"17";"19";"1";"21";"26";"284";"274";"34"
"23:00";"6.6";"17";"19";"1";"21";"25";"327";"284";"38"
"24:00";"5.5";"9";"10";"1";"29";"24";"256";"283";"24"
"wartość średnia";"11.5 (poz. dop.: 125 µg/m3)";"24";"45";"14";"17";"15";"547";"741";"50 (poz. dop.: 50 µg/m3)"
"minimum";"5.1";"9";"10";"1";"2";"3";"250";"270";"15"
"maksimum";"49.6";"35";"102";"44";"35";"29 (poz. doc.: 120 µg/m3)";"1235";"1589 (poz. dop.: 10000 µg/m3)";"123"