"CZAS";"SO2 Dwutlenek siarki poz. dop.: 350 [µg/m3]";"NO2 Dwutlenek azotu poz. dop.: 200 [µg/m3]";"NOx Tlenki azotu  [µg/m3]";"NO Tlenek azotu  [µg/m3]";"O3 Ozon  [µg/m3]";"O3 Ozon 8h poz. doc.: 120 [µg/m3]";"CO Tlenek węgla  [µg/m3]";"CO Tlenek węgla 8h poz. dop.: 10000 [µg/m3]";"PM10 Pył zawieszony PM10  [µg/m3]"
"1:00";"13.2";"13";"15";"1";"37";"26";"366";"417";"41"
"2:00";"18.4";"14";"15";"1";"40";"29";"355";"400";"37"
"3:00";"12.8";"12";"13";"1";"42";"33";"338";"381";"32"
"4:00";"12.1";"12";"13";"1";"40";"36";"348";"372";"36"
"5:00";"12.4";"15";"17";"1";"38";"38";"342";"362";"28"
"6:00";"13.0";"23";"26";"2";"26";"37";"367";"359";"36"
"7:00";"15.6";"28";"31";"2";"21";"35";"380";"358";"30"
"8:00";"18.0";"27";"34";"4";"15";"32";"414";"364";"32"
"9:00";"20.2";"28";"41";"8";"11";"29";"417";"370";"32"
"10:00";"19.1";"29";"48";"12";"9";"25";"442";"381";"37"
"11:00";"22.8";"32";"63";"20";"7";"21";"474";"398";"33"
"12:00";"24.3";"32";"63";"20";"7";"17";"471";"413";"37"
"13:00";"24.0";"33";"63";"20";"7";"13";"483";"431";"46"
"14:00";"22.1";"34";"69";"23";"6";"10";"480";"445";"42"
"15:00";"26.3";"35";"69";"22";"5";"8";"471";"456";"44"
"16:00";"23.9";"35";"58";"15";"6";"7";"448";"461";"37"
"17:00";"23.2";"36";"59";"15";"4";"6";"489";"470";"44"
"18:00";"21.7";"36";"61";"16";"4";"6";"512";"478";"44"
"19:00";"16.7";"33";"52";"12";"4";"5";"536";"486";"45"
"20:00";"14.7";"32";"49";"11";"5";"5";"538";"495";"49"
"21:00";"13.6";"31";"45";"9";"5";"5";"536";"501";"40"
"22:00";"12.6";"29";"38";"6";"7";"5";"465";"499";"34"
"23:00";"12.5";"23";"27";"3";"11";"6";"476";"500";"38"
"24:00";"12.1";"21";"24";"2";"13";"7";"434";"498";"36"
"wartość średnia";"17.7 (poz. dop.: 125 µg/m3)";"27";"41";"10";"15";"18";"441";"429";"38 (poz. dop.: 50 µg/m3)"
"minimum";"12.1";"12";"13";"1";"4";"5";"338";"358";"28"
"maksimum";"26.3";"36";"69";"23";"42";"38 (poz. doc.: 120 µg/m3)";"538";"501 (poz. dop.: 10000 µg/m3)";"49"